{
    "filename": "provincias_CGPJ_2017",
    "url": "https://www.poderjudicial.es/stfls/ESTADISTICA/FICHEROS/JVM/A%C3%B1os%20anteriores/A%C3%B1o%202017/Violencia%20sobre%20la%20Mujer%20por%20Provincias%20A%C3%B1o%202017.xls",
    "table_name": "provincias_CGPJ",
    "type": "xls",
    "fields": [
      {
        "id": "Provincia",
        "type": "string",
        "normalizer": "Provincias"
      },
      {
        "id": "Anio",
        "type": "int"
      },
      {
        "id": "Total_delitos",
        "type": "int"
      },
      {
        "id": "Homicidios",
        "type": "int"
      },
      {
        "id": "Aborto",
        "type": "int"
      },	
      {
        "id": "Lesiones_al_feto",
        "type": "int"
      },	
      {
        "id": "Lesiones_malos_tratos_art_153_CP",
        "type": "int"
      }, 
      {
        "id": "Lesiones_malos_tratos_art_173_CP",
        "type": "int"
      },	
      {
        "id": "Lesiones_malos_tratos_art_148_ss_CP",
        "type": "int"
      },	
      {
        "id": "Contra_la_libertad",
        "type": "int"
      },	
      {
        "id": "Contra_libertad_e_indemnidad_sexuales",
        "type": "int"
      },	
      {
        "id": "Contra_integridad_moral",
        "type": "int"
      },
      {
        "id": "Contra_intimidad_y_derecho_a_la_propia_imagen",
        "type": "int"
      },
      {
        "id": "Contra_el_honor",
        "type": "int"
      },
      {
        "id": "Contra_derechos_deberes_familiares",
        "type": "int"
      },
      {
        "id": "Quebrantamientos_penas",
        "type": "int"
      },	
      {
        "id": "Quebrantamientos_medidas",
        "type": "int"
      },
      {
        "id": "Otros_delitos",
        "type": "int"
      },
      {
        "id": "Total_ordenes",
        "type": "int"
      },
      {
        "id": "Victima_espaniola_mayor_de_edad",
        "type": "int"
      },
      {
        "id": "Victima_espaniola_menor_de_edad",
        "type": "int"
      },
      {
        "id": "Victima_extranjera_mayor_de_edad",
        "type": "int"
      },
      {
        "id": "Victima_extranjera_menor_de_edad",
        "type": "int"
      },
      {
        "id": "Denunciado_hombre_espaniol",
        "type": "int"
      },
      {
        "id": "Denunciado_hombre_extranjero",
        "type": "int"
      },
      {
        "id": "Conyuge",
        "type": "int"
      },
      {
        "id": "Exconyuge",
        "type": "int"
      },
      {
        "id": "Relac_afectiva",
        "type": "int"
      },
      {
        "id": "Exrelacion_afectiva",
        "type": "int"
      },
      {
        "id": "Total_Relacion",
        "type": "int"
      },
      {
        "id": "Mujeres_victimas_vg",
        "type": "int"
      },
      {
        "id": "Denuncias_recibidas",
        "type": "int"
      },
      {
        "id": "Presentada_directamente_victima",
        "type": "int"
      },
      {
        "id": "Presentada_directamente_familiares",
        "type": "int"
      },
      {
        "id": "Atestado_policial_denuncia_victima",
        "type": "int"
      },
      {
        "id": "Atestado_policial_denuncia_familiar",
        "type": "int"
      },
      {
        "id": "Atestado_policial_intervencion_directa_policial",
        "type": "int"
      },
      {
        "id": "Parte_lesiones",
        "type": "int"
      },
      {
        "id": "Servicios_asistencia_terceros_general",
        "type": "int"
      },
      {
        "id": "Renuncias_proceso",
        "type": "int"
      },
      {
        "id": "Renuncias_espaniolas",
        "type": "int"
      },
      {
        "id": "Renuncias_extranjeras",
        "type": "int"
      }
    ],
    "sheets": [
      {
        "name": "Tipos de delitos registrados",
        "id": 2,
        "firstRow": 6,
        "firstColumn": 0,
        "fields": [
          {
            "id": "Provincia",
            "column": 0
          },
          {
            "id": "Total_delitos",
            "column": 1
          },
          {
            "id": "Homicidios",
            "column": 2
          },
          {
            "id": "Aborto",
            "column": 3
          },	
          {
            "id": "Lesiones_al_feto",
            "column": 4
          },	
          {
            "id": "Lesiones_malos_tratos_art_153_CP",
            "column": 5
          }, 
          {
            "id": "Lesiones_malos_tratos_art_173_CP",
            "column": 6
          },	
          {
            "id": "Lesiones_malos_tratos_art_148_ss_CP",
            "column": 7
          },	
          {
            "id": "Contra_la_libertad",
            "column": 8
          },	
          {
            "id": "Contra_libertad_e_indemnidad_sexuales",
            "column": 9
          },	
          {
            "id": "Contra_integridad_moral",
            "column": 10
          },
          {
            "id": "Contra_intimidad_y_derecho_a_la_propia_imagen",
            "column": 11
          },
          {
            "id": "Contra_el_honor",
            "column": 12
          },
          {
            "id": "Contra_derechos_deberes_familiares",
            "column": 13
          },
          {
            "id": "Quebrantamientos_penas",
            "column": 14
          },	
          {
            "id": "Quebrantamientos_medidas",
            "column": 15
          },
          {
            "id": "Otros_delitos",
            "column": 16
          }
        ]
      },
      {
        "name": "Ordenes levantadas de acuerdo a nacionalidad de la victima y del agresor",
        "id": 14,
        "firstRow": 6,
        "firstColumn": 0,
        "fields": [
          {
            "id": "Total_ordenes",
            "column": 1
          },
          {
            "id": "Victima_espaniola_mayor_de_edad",
            "column": 2
          },
          {
            "id": "Victima_espaniola_menor_de_edad",
            "column": 3
          },
          {
            "id": "Victima_extranjera_mayor_de_edad",
            "column": 4
          },
          {
            "id": "Victima_extranjera_menor_de_edad",
            "column": 5
          },
          {
            "id": "Denunciado_hombre_espaniol",
            "column": 6
          },
          {
            "id": "Denunciado_hombre_extranjero",
            "column": 7
          }
        ]
      },
      {
        "name": "Relacion victima y denunciado",
        "id": 18,
        "firstRow": 6,
        "firstColumn": 0,
        "fields": [
          {
            "id": "Conyuge",
            "column": 1
          },
          {
            "id": "Exconyuge",
            "column": 2
          },
          {
            "id": "Relac_afectiva",
            "column": 3
          },
          {
            "id": "Exrelacion_afectiva",
            "column": 4
          },
          {
            "id": "Total_Relacion",
            "column": 5
          }
        ]
      },
      {
        "name": "Denuncias y renuncias",
        "id": 19,
        "firstRow": 6,
        "firstColumn": 0,
        "fields": [
        {
          "id": "Mujeres_victimas_vg",
          "column": 1
        },
        {
          "id": "Denuncias_recibidas",
          "column": 4
        },
        {
          "id": "Presentada_directamente_victima",
          "column": 5
        },
        {
          "id": "Presentada_directamente_familiares",
          "column": 6
        },
        {
          "id": "Atestado_policial_denuncia_victima",
          "column": 7
        },
        {
          "id": "Atestado_policial_denuncia_familiar",
          "column": 8
        },
        {
          "id": "Atestado_policial_intervencion_directa_policial",
          "column": 9
        },
        {
          "id": "Parte_lesiones",
          "column": 10
        },
        {
          "id": "Servicios_asistencia_terceros_general",
          "column": 11
        },
        {
          "id": "Renuncias_proceso",
          "column": 12
        },
        {
          "id": "Renuncias_espaniolas",
          "column": 13
        },
        {
          "id": "Renuncias_extranjeras",
          "column": 14
        }
        ]
      }
    ],
    "extra_fields": {
      "Anio": 2017
    }
  }